Proyecto Procesador Principal/uP_tb.vcd
$date
	Sun Nov 22 01:35:33 2020
$end
$version
	Icarus Verilog
$end
$timescale
	1ps
$end
$scope module testbench $end
$var wire 4 ! data_bus [3:0] $end
$var wire 1 " z_flag $end
$var wire 8 # program_byte [7:0] $end
$var wire 1 $ phase $end
$var wire 4 % oprnd [3:0] $end
$var wire 4 & instr [3:0] $end
$var wire 1 ' c_flag $end
$var wire 12 ( address_RAM [11:0] $end
$var wire 4 ) accu [3:0] $end
$var wire 12 * PC [11:0] $end
$var wire 4 + FF_out [3:0] $end
$var reg 1 , clock $end
$var reg 4 - pushbuttons [3:0] $end
$var reg 1 . reset $end
$var integer 32 / immediateDelay [31:0] $end
$var integer 32 0 jumpDelay [31:0] $end
$var integer 32 1 memoryDelay [31:0] $end
$var integer 32 2 nota [31:0] $end
$scope module uPmodule $end
$var wire 1 , clock $end
$var wire 4 3 data_bus [3:0] $end
$var wire 4 4 pushbuttons [3:0] $end
$var wire 1 . reset $end
$var wire 1 " z_flag $end
$var wire 8 5 program_byte [7:0] $end
$var wire 1 $ phase $end
$var wire 4 6 oprnd [3:0] $end
$var wire 4 7 instr [3:0] $end
$var wire 1 ' c_flag $end
$var wire 12 8 address_RAM [11:0] $end
$var wire 4 9 accu [3:0] $end
$var wire 12 : PC [11:0] $end
$var wire 13 ; O_DEC [12:0] $end
$var wire 4 < O_ALU [3:0] $end
$var wire 7 = I_DEC [6:0] $end
$var wire 4 > FF_out [3:0] $end
$var wire 1 ? B $end
$var wire 1 @ A $end
$scope module ALU $end
$var wire 4 A I2 [3:0] $end
$var wire 3 B com [2:0] $end
$var wire 1 @ zero $end
$var wire 4 C res [3:0] $end
$var wire 1 ? carry $end
$var wire 4 D I1 [3:0] $end
$var reg 5 E regr [4:0] $end
$upscope $end
$scope module Accumulator $end
$var wire 1 F Enable $end
$var wire 4 G I [3:0] $end
$var wire 1 , clk $end
$var wire 1 . reset $end
$var wire 4 H O [3:0] $end
$scope module D1 $end
$var wire 2 I I2 [1:0] $end
$var wire 1 , clk $end
$var wire 1 F enabled $end
$var wire 1 . reset $end
$var wire 2 J O2 [1:0] $end
$scope module B1 $end
$var wire 1 F Enable $end
$var wire 1 K I1 $end
$var wire 1 , clk $end
$var wire 1 . reset $end
$var reg 1 L O1 $end
$upscope $end
$scope module B2 $end
$var wire 1 F Enable $end
$var wire 1 M I1 $end
$var wire 1 , clk $end
$var wire 1 . reset $end
$var reg 1 N O1 $end
$upscope $end
$upscope $end
$scope module D2 $end
$var wire 2 O I2 [1:0] $end
$var wire 1 , clk $end
$var wire 1 F enabled $end
$var wire 1 . reset $end
$var wire 2 P O2 [1:0] $end
$scope module B1 $end
$var wire 1 F Enable $end
$var wire 1 Q I1 $end
$var wire 1 , clk $end
$var wire 1 . reset $end
$var reg 1 R O1 $end
$upscope $end
$scope module B2 $end
$var wire 1 F Enable $end
$var wire 1 S I1 $end
$var wire 1 , clk $end
$var wire 1 . reset $end
$var reg 1 T O1 $end
$upscope $end
$upscope $end
$upscope $end
$scope module BALU $end
$var wire 1 U Enable $end
$var wire 4 V inputs [3:0] $end
$var wire 4 W outputs [3:0] $end
$upscope $end
$scope module BFetch $end
$var wire 1 X Enable $end
$var wire 4 Y outputs [3:0] $end
$var wire 4 Z inputs [3:0] $end
$upscope $end
$scope module BIn $end
$var wire 1 [ Enable $end
$var wire 4 \ inputs [3:0] $end
$var wire 4 ] outputs [3:0] $end
$upscope $end
$scope module C_Flag $end
$var wire 1 @ D1 $end
$var wire 1 ? D2 $end
$var wire 1 ^ En $end
$var wire 1 , clock $end
$var wire 1 . reset $end
$var wire 1 " Ze $end
$var wire 1 ' C $end
$scope module S1 $end
$var wire 1 ^ Enable $end
$var wire 1 @ I1 $end
$var wire 1 , clk $end
$var wire 1 . reset $end
$var reg 1 " O1 $end
$upscope $end
$scope module S2 $end
$var wire 1 ^ Enable $end
$var wire 1 ? I1 $end
$var wire 1 , clk $end
$var wire 1 . reset $end
$var reg 1 ' O1 $end
$upscope $end
$upscope $end
$scope module Decoder $end
$var wire 7 _ I [6:0] $end
$var wire 13 ` R [12:0] $end
$var reg 13 a O [12:0] $end
$upscope $end
$scope module Fetch $end
$var wire 1 b Enable2 $end
$var wire 1 , clk $end
$var wire 1 . reset $end
$var wire 4 c O2 [3:0] $end
$var wire 4 d O1 [3:0] $end
$var wire 8 e I [7:0] $end
$scope module C1 $end
$var wire 4 f I3 [3:0] $end
$var wire 1 , clk $end
$var wire 1 b enabled $end
$var wire 1 . reset $end
$var wire 4 g O3 [3:0] $end
$scope module C1 $end
$var wire 2 h I2 [1:0] $end
$var wire 1 , clk $end
$var wire 1 b enabled $end
$var wire 1 . reset $end
$var wire 2 i O2 [1:0] $end
$scope module B1 $end
$var wire 1 b Enable $end
$var wire 1 j I1 $end
$var wire 1 , clk $end
$var wire 1 . reset $end
$var reg 1 k O1 $end
$upscope $end
$scope module B2 $end
$var wire 1 b Enable $end
$var wire 1 l I1 $end
$var wire 1 , clk $end
$var wire 1 . reset $end
$var reg 1 m O1 $end
$upscope $end
$upscope $end
$scope module C2 $end
$var wire 2 n I2 [1:0] $end
$var wire 1 , clk $end
$var wire 1 b enabled $end
$var wire 1 . reset $end
$var wire 2 o O2 [1:0] $end
$scope module B1 $end
$var wire 1 b Enable $end
$var wire 1 p I1 $end
$var wire 1 , clk $end
$var wire 1 . reset $end
$var reg 1 q O1 $end
$upscope $end
$scope module B2 $end
$var wire 1 b Enable $end
$var wire 1 r I1 $end
$var wire 1 , clk $end
$var wire 1 . reset $end
$var reg 1 s O1 $end
$upscope $end
$upscope $end
$upscope $end
$scope module C2 $end
$var wire 4 t I3 [3:0] $end
$var wire 1 , clk $end
$var wire 1 b enabled $end
$var wire 1 . reset $end
$var wire 4 u O3 [3:0] $end
$scope module C1 $end
$var wire 2 v I2 [1:0] $end
$var wire 1 , clk $end
$var wire 1 b enabled $end
$var wire 1 . reset $end
$var wire 2 w O2 [1:0] $end
$scope module B1 $end
$var wire 1 b Enable $end
$var wire 1 x I1 $end
$var wire 1 , clk $end
$var wire 1 . reset $end
$var reg 1 y O1 $end
$upscope $end
$scope module B2 $end
$var wire 1 b Enable $end
$var wire 1 z I1 $end
$var wire 1 , clk $end
$var wire 1 . reset $end
$var reg 1 { O1 $end
$upscope $end
$upscope $end
$scope module C2 $end
$var wire 2 | I2 [1:0] $end
$var wire 1 , clk $end
$var wire 1 b enabled $end
$var wire 1 . reset $end
$var wire 2 } O2 [1:0] $end
$scope module B1 $end
$var wire 1 b Enable $end
$var wire 1 ~ I1 $end
$var wire 1 , clk $end
$var wire 1 . reset $end
$var reg 1 !" O1 $end
$upscope $end
$scope module B2 $end
$var wire 1 b Enable $end
$var wire 1 "" I1 $end
$var wire 1 , clk $end
$var wire 1 . reset $end
$var reg 1 #" O1 $end
$upscope $end
$upscope $end
$upscope $end
$upscope $end
$scope module OFFD4 $end
$var wire 4 $" I3 [3:0] $end
$var wire 1 , clk $end
$var wire 1 %" enabled $end
$var wire 1 . reset $end
$var wire 4 &" O3 [3:0] $end
$scope module C1 $end
$var wire 2 '" I2 [1:0] $end
$var wire 1 , clk $end
$var wire 1 %" enabled $end
$var wire 1 . reset $end
$var wire 2 (" O2 [1:0] $end
$scope module B1 $end
$var wire 1 %" Enable $end
$var wire 1 )" I1 $end
$var wire 1 , clk $end
$var wire 1 . reset $end
$var reg 1 *" O1 $end
$upscope $end
$scope module B2 $end
$var wire 1 %" Enable $end
$var wire 1 +" I1 $end
$var wire 1 , clk $end
$var wire 1 . reset $end
$var reg 1 ," O1 $end
$upscope $end
$upscope $end
$scope module C2 $end
$var wire 2 -" I2 [1:0] $end
$var wire 1 , clk $end
$var wire 1 %" enabled $end
$var wire 1 . reset $end
$var wire 2 ." O2 [1:0] $end
$scope module B1 $end
$var wire 1 %" Enable $end
$var wire 1 /" I1 $end
$var wire 1 , clk $end
$var wire 1 . reset $end
$var reg 1 0" O1 $end
$upscope $end
$scope module B2 $end
$var wire 1 %" Enable $end
$var wire 1 1" I1 $end
$var wire 1 , clk $end
$var wire 1 . reset $end
$var reg 1 2" O1 $end
$upscope $end
$upscope $end
$upscope $end
$scope module Phase $end
$var wire 1 , clk $end
$var wire 1 3" enabled $end
$var wire 1 . reset $end
$var wire 1 $ O1 $end
$scope module D1 $end
$var wire 1 3" Enable $end
$var wire 1 4" I1 $end
$var wire 1 , clk $end
$var wire 1 . reset $end
$var reg 1 $ O1 $end
$upscope $end
$upscope $end
$scope module Program_Counter $end
$var wire 1 5" Enable $end
$var wire 1 6" P $end
$var wire 1 , clk $end
$var wire 12 7" load [11:0] $end
$var wire 1 . reset $end
$var reg 12 8" exit [11:0] $end
$upscope $end
$scope module RAM $end
$var wire 1 9" Enable $end
$var wire 12 :" addres [11:0] $end
$var wire 4 ;" data [3:0] $end
$var wire 1 <" write $end
$var reg 4 =" dataout [3:0] $end
$upscope $end
$scope module ROM $end
$var wire 12 >" I [11:0] $end
$var wire 8 ?" O [7:0] $end
$upscope $end
$upscope $end
$upscope $end
$enddefinitions $end
#0
$dumpvars
bx ?"
bx >"
bx ="
x<"
bx ;"
bx :"
x9"
bx 8"
bx 7"
x6"
x5"
x4"
13"
x2"
x1"
x0"
x/"
bx ."
bx -"
x,"
x+"
x*"
x)"
bx ("
bx '"
bx &"
x%"
bx $"
x#"
x""
x!"
x~
bx }
bx |
x{
xz
xy
xx
bx w
bx v
bx u
bx t
xs
xr
xq
xp
bx o
bx n
xm
xl
xk
xj
bx i
bx h
bx g
bx f
bx e
bx d
bx c
xb
bx a
bx `
bx _
x^
bx ]
b110 \
x[
bx Z
bx Y
xX
bx W
bx V
xU
xT
xS
xR
xQ
bx P
bx O
xN
xM
xL
xK
bx J
bx I
bx H
bx G
xF
bx E
bx D
bx C
bx B
bx A
x@
x?
bx >
bx =
bx <
bx ;
bx :
bx 9
bx 8
bx 7
bx 6
bx 5
b110 4
bx 3
b0 2
b100010100 1
b1010010000 0
b10000 /
0.
b110 -
0,
bx +
bx *
bx )
bx (
x'
bx &
bx %
x$
bx #
x"
bx !
$end
#2
0)"
0+"
0/"
01"
b0 '"
b0 -"
0K
0M
0Q
0S
1@
b0 !
b0 3
b0 A
b0 W
b0 Y
b0 ]
b0 $"
b0 ;"
1x
1z
1~
1""
1j
0l
0p
0r
b0 I
b0 O
b11 v
b11 |
b1 h
b0 n
b0 <
b0 C
b0 G
b0 V
0?
0^
0F
b0 B
1U
0[
0X
0<"
09"
06"
15"
0%"
14"
1b
b1111 t
b100 f
b0 E
b1000000001000 ;
b1000000001000 `
b1000000001000 a
0*"
b0 ("
0,"
00"
b0 +
b0 >
b0 &"
b0 ."
02"
0$
b1001111 #
b1001111 5
b1001111 e
b1001111 ?"
b0 *
b0 :
b0 8"
b0 >"
0k
b0 i
0m
0q
b0 &
b0 7
b0 d
b0 g
b0 o
0s
0y
b0 w
0{
0!"
b1001111 (
b1001111 8
b1001111 7"
b1001111 :"
b0 %
b0 6
b0 Z
b0 c
b0 u
b0 }
0#"
0L
b0 J
0N
0R
b0 )
b0 9
b0 D
b0 H
b0 P
0T
0"
b0 =
b0 _
0'
1.
#3
0.
#5
1K
1M
1Q
1S
0@
b11 I
b11 O
b1111 <
b1111 C
b1111 G
b1111 V
b1111 E
1^
1F
b10 B
1X
1)"
1+"
1/"
11"
b11 '"
b11 -"
1l
1p
b1111 !
b1111 3
b1111 A
b1111 W
b1111 Y
b1111 ]
b1111 $"
b1111 ;"
b11 h
b1 n
0U
05"
b1101 f
04"
b11010000010 ;
b11010000010 `
b11010000010 a
0b
1#"
b11 }
1!"
1{
b1111 %
b1111 6
b1111 Z
b1111 c
b1111 u
b11 w
1y
b100 &
b100 7
b100 d
b100 g
b1 i
1k
b111111011111 (
b111111011111 8
b111111011111 7"
b111111011111 :"
b11011111 #
b11011111 5
b11011111 e
b11011111 ?"
b1 *
b1 :
b1 8"
b1 >"
b100001 =
b100001 _
1$
1,
#10
0,
#15
1U
15"
1)"
1+"
1/"
11"
b11 '"
b11 -"
b1111 !
b1111 3
b1111 A
b1111 W
b1111 Y
b1111 ]
b1111 $"
b1111 ;"
0^
0F
b0 B
0X
14"
b1000000001000 ;
b1000000001000 `
b1000000001000 a
1b
b100000 =
b100000 _
0$
1L
b11 J
1N
1R
b1111 )
b1111 9
b1111 D
b1111 H
b11 P
1T
1,
#16
b1000110 2
#20
0,
#25
1%"
1)"
1+"
1/"
11"
b11 '"
b11 -"
0x
0z
0""
0l
b1111 !
b1111 3
b1111 A
b1111 W
b1111 Y
b1111 ]
b1111 $"
b1111 ;"
b0 v
b1 |
b1 h
1U
05"
b1 t
b101 f
04"
b1001 ;
b1001 `
b1001 a
0b
b1 o
1q
b1101 &
b1101 7
b1101 d
b1101 g
b11 i
1m
b111101010001 (
b111101010001 8
b111101010001 7"
b111101010001 :"
b1010001 #
b1010001 5
b1010001 e
b1010001 ?"
b10 *
b10 :
b10 8"
b10 >"
b1101001 =
b1101001 _
1$
1,
#30
0,
#35
15"
1)"
1+"
1/"
11"
b11 '"
b11 -"
b1111 !
b1111 3
b1111 A
b1111 W
b1111 Y
b1111 ]
b1111 $"
b1111 ;"
1U
0%"
14"
b1000000001000 ;
b1000000001000 `
b1000000001000 a
1b
1*"
b11 ("
1,"
10"
b1111 +
b1111 >
b1111 &"
b11 ."
12"
b1101000 =
b1101000 _
0$
1,
#36
b1100111 2
#40
0,
#45
0M
0Q
b1 I
b10 O
b110 <
b110 C
b110 G
b110 V
b110 E
1^
1F
b10 B
1[
1)"
0+"
0/"
11"
b1 '"
b10 -"
0~
0p
b110 !
b110 3
b110 A
b110 W
b110 Y
b110 ]
b110 $"
b110 ;"
b0 |
b0 n
0U
05"
b0 t
b100 f
04"
b11010000100 ;
b11010000100 `
b11010000100 a
0b
b1 }
0#"
0{
b1 %
b1 6
b1 Z
b1 c
b1 u
b0 w
0y
b101 &
b101 7
b101 d
b101 g
b1 i
0m
b101000000 (
b101000000 8
b101000000 7"
b101000000 :"
b1000000 #
b1000000 5
b1000000 e
b1000000 ?"
b11 *
b11 :
b11 8"
b11 >"
b101001 =
b101001 _
1$
1,
#50
0,
#55
1U
15"
1)"
0+"
0/"
11"
b1 '"
b10 -"
b110 !
b110 3
b110 A
b110 W
b110 Y
b110 ]
b110 $"
b110 ;"
0^
0F
b0 B
0[
14"
b1000000001000 ;
b1000000001000 `
b1000000001000 a
1b
b101000 =
b101000 _
0$
b1 J
0N
b110 )
b110 9
b110 D
b110 H
b10 P
0R
1,
#56
b10001000 2
#60
0,
#65
1@
0K
0S
b0 I
b0 O
b0 <
b0 C
b0 G
b0 V
b0 E
1^
1F
b10 B
1X
0)"
0+"
0/"
01"
b0 '"
b0 -"
1x
1z
1~
1""
b0 !
b0 3
b0 A
b0 W
b0 Y
b0 ]
b0 $"
b0 ;"
b11 v
b11 |
0U
05"
b1111 t
04"
b11010000010 ;
b11010000010 `
b11010000010 a
0b
b0 %
b0 6
b0 Z
b0 c
b0 u
b0 }
0!"
b100 &
b100 7
b100 d
b100 g
b0 o
0q
b1001111 (
b1001111 8
b1001111 7"
b1001111 :"
b1001111 #
b1001111 5
b1001111 e
b1001111 ?"
b100 *
b100 :
b100 8"
b100 >"
b100001 =
b100001 _
1$
1,
#70
0,
#75
1U
15"
0)"
0+"
0/"
01"
b0 '"
b0 -"
b0 !
b0 3
b0 A
b0 W
b0 Y
b0 ]
b0 $"
b0 ;"
0^
0F
b0 B
0X
14"
1b
b1000000001000 ;
b1000000001000 `
b1000000001000 a
0$
b0 J
0L
b0 )
b0 9
b0 D
b0 H
b0 P
0T
b100010 =
b100010 _
1"
1,
#80
0,
#85
1K
1M
1Q
1S
0@
b11 I
b11 O
b1111 <
b1111 C
b1111 G
b1111 V
b1111 E
1^
1F
b10 B
1X
1)"
1+"
1/"
11"
b11 '"
b11 -"
0x
0~
0j
1l
1r
b1111 !
b1111 3
b1111 A
b1111 W
b1111 Y
b1111 ]
b1111 $"
b1111 ;"
b10 v
b10 |
b10 h
b10 n
0U
05"
b1010 t
b1010 f
04"
b11010000010 ;
b11010000010 `
b11010000010 a
0b
1#"
b11 }
1!"
1{
b1111 %
b1111 6
b1111 Z
b1111 c
b1111 u
b11 w
1y
b111110101010 (
b111110101010 8
b111110101010 7"
b111110101010 :"
b10101010 #
b10101010 5
b10101010 e
b10101010 ?"
b101 *
b101 :
b101 8"
b101 >"
b100011 =
b100011 _
1$
1,
#90
0,
#95
1U
15"
1)"
1+"
1/"
11"
b11 '"
b11 -"
b1111 !
b1111 3
b1111 A
b1111 W
b1111 Y
b1111 ]
b1111 $"
b1111 ;"
0^
0F
b0 B
0X
14"
1b
b1000000001000 ;
b1000000001000 `
b1000000001000 a
0$
1L
b11 J
1N
1R
b1111 )
b1111 9
b1111 D
b1111 H
b11 P
1T
b100000 =
b100000 _
0"
1,
#100
0,
#105
0K
0S
b10 I
b1 O
b1001 <
b1001 C
b1001 G
b1001 V
1?
b11001 E
1^
1F
b11 B
1X
0)"
1+"
0/"
11"
b10 '"
b10 -"
0""
0l
b1010 !
b1010 3
b1010 A
b1010 W
b1010 Y
b1010 ]
b1010 $"
b1010 ;"
b0 |
b0 h
0U
05"
b1000 t
b10 f
04"
b11011000010 ;
b11011000010 `
b11011000010 a
0b
b10 }
0!"
b1010 %
b1010 6
b1010 Z
b1010 c
b1010 u
b10 w
0y
b10 o
1s
1m
b1010 &
b1010 7
b1010 d
b1010 g
b10 i
0k
b101000101000 (
b101000101000 8
b101000101000 7"
b101000101000 :"
b101000 #
b101000 5
b101000 e
b101000 ?"
b110 *
b110 :
b110 8"
b110 >"
b1010001 =
b1010001 _
1$
1,
#110
0,
#115
1U
15"
0)"
1+"
1/"
01"
1M
0S
0?
b10 '"
b1 -"
b10 I
b1 O
b1001 !
b1001 3
b1001 A
b1001 W
b1001 Y
b1001 ]
b1001 $"
b1001 ;"
b1001 <
b1001 C
b1001 G
b1001 V
0^
0F
b0 B
0X
14"
1b
b1001 E
b1000000001000 ;
b1000000001000 `
b1000000001000 a
0$
b10 J
0L
b1001 )
b1001 9
b1001 D
b1001 H
b1 P
0T
b1010100 =
b1010100 _
1'
1,
#116
b10101001 2
#120
0,
#125
0M
b0 I
b1 <
b1 C
b1 G
b1 V
b1 E
1^
b1 B
1X
0)"
1+"
0/"
01"
b10 '"
b0 -"
1""
1j
0r
b1000 !
b1000 3
b1000 A
b1000 W
b1000 Y
b1000 ]
b1000 $"
b1000 ;"
b10 |
b1 h
b0 n
0U
05"
b1010 t
b100 f
04"
b1001000010 ;
b1001000010 `
b1001000010 a
0b
b1000 %
b1000 6
b1000 Z
b1000 c
b1000 u
b0 }
0#"
b10 &
b10 7
b10 d
b10 g
b0 i
0m
b100001001010 (
b100001001010 8
b100001001010 7"
b100001001010 :"
b1001010 #
b1001010 5
b1001010 e
b1001010 ?"
b111 *
b111 :
b111 8"
b111 >"
b10101 =
b10101 _
1$
1,
#130
0,
#135
1U
15"
1M
b10 I
0)"
1+"
1/"
01"
b1001 <
b1001 C
b1001 G
b1001 V
b10 '"
b1 -"
b1001 E
b1001 !
b1001 3
b1001 A
b1001 W
b1001 Y
b1001 ]
b1001 $"
b1001 ;"
0^
b0 B
0X
14"
1b
b1000000001000 ;
b1000000001000 `
b1000000001000 a
0$
b10000 =
b10000 _
0'
1,
#136
b11001010 2
#140
0,
#145
0Q
1S
b10 O
b1010 <
b1010 C
b1010 G
b1010 V
b1010 E
1^
1F
b10 B
1X
0)"
1+"
0/"
11"
b10 '"
b10 -"
1x
0""
0j
1r
b1010 !
b1010 3
b1010 A
b1010 W
b1010 Y
b1010 ]
b1010 $"
b1010 ;"
b11 v
b0 |
b0 h
b10 n
0U
05"
b1100 t
b10 f
04"
b11010000010 ;
b11010000010 `
b11010000010 a
0b
b1010 %
b1010 6
b1010 Z
b1010 c
b1010 u
b10 }
1#"
b0 o
0s
b100 &
b100 7
b100 d
b100 g
b1 i
1k
b101000101100 (
b101000101100 8
b101000101100 7"
b101000101100 :"
b101100 #
b101100 5
b101100 e
b101100 ?"
b1000 *
b1000 :
b1000 8"
b1000 >"
b100001 =
b100001 _
1$
1,
#150
0,
#155
1U
15"
0)"
1+"
0/"
11"
b10 '"
b10 -"
b1010 !
b1010 3
b1010 A
b1010 W
b1010 Y
b1010 ]
b1010 $"
b1010 ;"
0^
0F
b0 B
0X
14"
b1000000001000 ;
b1000000001000 `
b1000000001000 a
1b
b100000 =
b100000 _
0$
0R
b1010 )
b1010 9
b1010 D
b1010 H
b10 P
1T
1,
#160
0,
#165
1K
b11 I
b1110 <
b1110 C
b1110 G
b1110 V
1?
b11110 E
1^
b1 B
1X
1)"
1+"
0/"
01"
b11 '"
b0 -"
0x
0z
1~
1l
b1100 !
b1100 3
b1100 A
b1100 W
b1100 Y
b1100 ]
b1100 $"
b1100 ;"
b0 v
b1 |
b10 h
0U
05"
b1 t
b1010 f
04"
b1001000010 ;
b1001000010 `
b1001000010 a
0b
b0 }
0#"
b1100 %
b1100 6
b1100 Z
b1100 c
b1100 u
b11 w
1y
b10 o
1s
b10 &
b10 7
b10 d
b10 g
b0 i
0k
b110010100001 (
b110010100001 8
b110010100001 7"
b110010100001 :"
b10100001 #
b10100001 5
b10100001 e
b10100001 ?"
b1001 *
b1001 :
b1001 8"
b1001 >"
b10001 =
b10001 _
1$
1,
#170
0,
#175
1U
15"
0K
b10 I
0)"
1+"
0/"
11"
b1010 <
b1010 C
b1010 G
b1010 V
0?
b10 '"
b10 -"
b1010 E
b1010 !
b1010 3
b1010 A
b1010 W
b1010 Y
b1010 ]
b1010 $"
b1010 ;"
0^
b0 B
0X
14"
1b
b1000000001000 ;
b1000000001000 `
b1000000001000 a
0$
b10100 =
b10100 _
1'
1,
#176
b11101011 2
#180
0,
#185
1Q
b11 O
b1011 <
b1011 C
b1011 G
b1011 V
b1011 E
1^
1F
b11 B
1X
0)"
0+"
1/"
01"
b0 '"
b1 -"
1z
1""
1j
b1 !
b1 3
b1 A
b1 W
b1 Y
b1 ]
b1 $"
b1 ;"
b10 v
b11 |
b11 h
0U
05"
b1011 t
b1110 f
04"
b11011000010 ;
b11011000010 `
b11011000010 a
0b
b1 }
1!"
0{
b1 %
b1 6
b1 Z
b1 c
b1 u
b0 w
0y
b1010 &
b1010 7
b1010 d
b1010 g
b10 i
1m
b111101011 (
b111101011 8
b111101011 7"
b111101011 :"
b11101011 #
b11101011 5
b11101011 e
b11101011 ?"
b1010 *
b1010 :
b1010 8"
b1010 >"
b1010101 =
b1010101 _
1$
1,
#190
0,
#195
1U
15"
0)"
1+"
1/"
11"
0K
1Q
1S
b10 '"
b11 -"
b10 I
b11 O
b1011 !
b1011 3
b1011 A
b1011 W
b1011 Y
b1011 ]
b1011 $"
b1011 ;"
b1011 <
b1011 C
b1011 G
b1011 V
0^
0F
b0 B
0X
14"
1b
b1011 E
b1000000001000 ;
b1000000001000 `
b1000000001000 a
0$
b1011 )
b1011 9
b1011 D
b1011 H
b11 P
1R
b1010000 =
b1010000 _
0'
1,
#196
b100001100 2
#200
0,
#205
1K
0M
0Q
0S
b1 I
b0 O
b100 <
b100 C
b100 G
b100 V
b100 E
1^
1F
b100 B
1X
0)"
1+"
1/"
11"
b10 '"
b11 -"
0z
0~
0""
1p
0r
b1011 !
b1011 3
b1011 A
b1011 W
b1011 Y
b1011 ]
b1011 $"
b1011 ;"
b0 v
b0 |
b1 n
0U
05"
b0 t
b1101 f
04"
b11100000010 ;
b11100000010 `
b11100000010 a
0b
b11 }
1#"
b1011 %
b1011 6
b1011 Z
b1011 c
b1011 u
b10 w
1{
b1110 &
b1110 7
b1110 d
b1110 g
b11 i
1k
b101111010000 (
b101111010000 8
b101111010000 7"
b101111010000 :"
b11010000 #
b11010000 5
b11010000 e
b11010000 ?"
b1011 *
b1011 :
b1011 8"
b1011 >"
b1110001 =
b1110001 _
1$
1,
#210
0,
#215
1U
15"
1)"
0+"
0/"
01"
b1 '"
b0 -"
0M
0Q
0S
b100 !
b100 3
b100 A
b100 W
b100 Y
b100 ]
b100 $"
b100 ;"
b1 I
b0 O
0^
0F
b0 B
0X
b100 <
b100 C
b100 G
b100 V
14"
b1000000001000 ;
b1000000001000 `
b1000000001000 a
1b
b100 E
b1110000 =
b1110000 _
0$
1L
b1 J
0N
0R
b100 )
b100 9
b100 D
b100 H
b0 P
0T
1,
#216
b101001110 2
#220
0,
#225
1%"
1)"
0+"
0/"
01"
b1 '"
b0 -"
0l
b100 !
b100 3
b100 A
b100 W
b100 Y
b100 ]
b100 $"
b100 ;"
b1 h
1U
05"
b101 f
04"
b1001 ;
b1001 `
b1001 a
0b
0#"
b0 }
0!"
b0 %
b0 6
b0 Z
b0 c
b0 u
b0 w
0{
0s
b1101 &
b1101 7
b1101 d
b1101 g
b1 o
1q
b1010000 (
b1010000 8
b1010000 7"
b1010000 :"
b1010000 #
b1010000 5
b1010000 e
b1010000 ?"
b1100 *
b1100 :
b1100 8"
b1100 >"
b1101001 =
b1101001 _
1$
1,
#230
0,
#235
15"
1)"
0+"
0/"
01"
b1 '"
b0 -"
b100 !
b100 3
b100 A
b100 W
b100 Y
b100 ]
b100 $"
b100 ;"
1U
0%"
14"
b1000000001000 ;
b1000000001000 `
b1000000001000 a
1b
b1 ("
0,"
00"
b100 +
b100 >
b100 &"
b0 ."
02"
b1101000 =
b1101000 _
0$
1,
#236
b1110 -
b1110 4
b1110 \
b101101111 2
#240
0,
#245
1M
1S
b11 I
b10 O
b1110 <
b1110 C
b1110 G
b1110 V
b1110 E
1^
1F
b10 B
1[
1)"
1+"
0/"
11"
b11 '"
b10 -"
1r
b1110 !
b1110 3
b1110 A
b1110 W
b1110 Y
b1110 ]
b1110 $"
b1110 ;"
b11 n
0U
05"
b111 f
04"
b11010000100 ;
b11010000100 `
b11010000100 a
0b
b101 &
b101 7
b101 d
b101 g
b1 i
0m
b1110000 (
b1110000 8
b1110000 7"
b1110000 :"
b1110000 #
b1110000 5
b1110000 e
b1110000 ?"
b1101 *
b1101 :
b1101 8"
b1101 >"
b101001 =
b101001 _
1$
1,
#250
0,
#255
1U
15"
1)"
1+"
0/"
11"
b11 '"
b10 -"
b1110 !
b1110 3
b1110 A
b1110 W
b1110 Y
b1110 ]
b1110 $"
b1110 ;"
0^
0F
b0 B
0[
14"
b1000000001000 ;
b1000000001000 `
b1000000001000 a
1b
b101000 =
b101000 _
0$
b11 J
1N
b1110 )
b1110 9
b1110 D
b1110 H
b10 P
1T
1,
#256
b110010000 2
#260
0,
#265
1<"
19"
1)"
1+"
0/"
11"
b11 '"
b10 -"
0j
0p
0r
b1110 !
b1110 3
b1110 A
b1110 W
b1110 Y
b1110 ]
b1110 $"
b1110 ;"
b0 h
b0 n
1U
15"
b0 f
04"
b1000000111000 ;
b1000000111000 `
b1000000111000 a
0b
b111 &
b111 7
b111 d
b111 g
b11 o
1s
b0 (
b0 8
b0 7"
b0 :"
b0 #
b0 5
b0 e
b0 ?"
b1110 *
b1110 :
b1110 8"
b1110 >"
b111001 =
b111001 _
1$
1,
#270
0,
#275
1)"
1+"
0/"
11"
b11 '"
b10 -"
b1110 !
b1110 3
b1110 A
b1110 W
b1110 Y
b1110 ]
b1110 $"
b1110 ;"
1x
1z
1~
1""
1j
1U
0<"
09"
15"
b11 v
b11 |
b1 h
14"
b1000000001000 ;
b1000000001000 `
b1000000001000 a
1b
b1111 t
b100 f
b111000 =
b111000 _
0$
b1001111 (
b1001111 8
b1001111 7"
b1001111 :"
b1001111 #
b1001111 5
b1001111 e
b1001111 ?"
b1111 *
b1111 :
b1111 8"
b1111 >"
1,
#280
0,
#285
1Q
b11 O
b1111 <
b1111 C
b1111 G
b1111 V
b1111 E
1^
1F
b10 B
1X
1)"
1+"
1/"
11"
b11 '"
b11 -"
0x
0z
0""
1p
1r
b1111 !
b1111 3
b1111 A
b1111 W
b1111 Y
b1111 ]
b1111 $"
b1111 ;"
b0 v
b1 |
b11 n
0U
05"
b1 t
b111 f
04"
b11010000010 ;
b11010000010 `
b11010000010 a
0b
1#"
b11 }
1!"
1{
b1111 %
b1111 6
b1111 Z
b1111 c
b1111 u
b11 w
1y
0s
b100 &
b100 7
b100 d
b100 g
b0 o
0q
b111101110001 (
b111101110001 8
b111101110001 7"
b111101110001 :"
b1110001 #
b1110001 5
b1110001 e
b1110001 ?"
b10000 *
b10000 :
b10000 8"
b10000 >"
b100001 =
b100001 _
1$
1,
#290
0,
#295
1U
15"
1)"
1+"
1/"
11"
b11 '"
b11 -"
b1111 !
b1111 3
b1111 A
b1111 W
b1111 Y
b1111 ]
b1111 $"
b1111 ;"
0^
0F
b0 B
0X
14"
b1000000001000 ;
b1000000001000 `
b1000000001000 a
1b
b100000 =
b100000 _
0$
b1111 )
b1111 9
b1111 D
b1111 H
b11 P
1R
1,
#300
0,
#305
1<"
19"
1)"
1+"
1/"
11"
b11 '"
b11 -"
0j
0r
b1111 !
b1111 3
b1111 A
b1111 W
b1111 Y
b1111 ]
b1111 $"
b1111 ;"
b0 h
b1 n
1U
15"
b1 f
04"
b1000000111000 ;
b1000000111000 `
b1000000111000 a
0b
b1 }
0#"
0{
b1 %
b1 6
b1 Z
b1 c
b1 u
b0 w
0y
1s
b111 &
b111 7
b111 d
b111 g
b11 o
1q
b100010001 (
b100010001 8
b100010001 7"
b100010001 :"
b10001 #
b10001 5
b10001 e
b10001 ?"
b10001 *
b10001 :
b10001 8"
b10001 >"
b111001 =
b111001 _
1$
1,
#310
0,
